{"hits":{"hits":[{"metadata":{"dateIssued":"1994","creator":[{"name":"Klosov\u00e1, Mark\u00e9ta"}],"oarepo:draft":true,"oarepo:validity":{"valid":false},"control_number":"22136","_administration":{"primaryCommunity":"67985955","communities":[]},"title":[{"cs":"Sympozium Kutn\u00e1 Hora v dob\u011b baroka. (Uspo\u0159\u00e1dala Muzejn\u00ed a vlastiv\u011bdn\u00e1 spole\u010dnost WOCEL v Kutn\u00e9 Ho\u0159e, katedra pomocn\u00fdch v\u011bd historick\u00fdch FF UK v Praze a Okresn\u00ed archiv v Kutn\u00e9 Ho\u0159e pod patronac\u00ed M\u011bstsk\u00e9ho \u00fa\u0159adu v Kutn\u00e9 Ho\u0159e ve dnech 14.-15. \u0159\u00edjna 1993)"}],"resourceType":[{"level":1,"links":{"self":"https://localhost:8080/api/2.0/taxonomies/resourceType/reports"},"title":{"cs":"Zpr\u00e1vy","en":"Reports"},"is_ancestor":true},{"level":2,"COARtype":["research report","research report"],"links":{"parent":"https://localhost:8080/api/2.0/taxonomies/resourceType/reports","self":"https://localhost:8080/api/2.0/taxonomies/resourceType/reports/research-reports"},"nuslType":["vyzkumne_zpravy","technicke_zpravy","vyzkumne_zpravy","technicke_zpravy"],"title":{"cs":"V\u00fdzkumn\u00e9 zpr\u00e1vy","en":"Research reports"},"is_ancestor":false,"isGL":"True","relatedURI":["http://purl.org/coar/resource_type/c_18ws","http://purl.org/coar/resource_type/c_18ws"]}]},"links":{"self":"https://localhost:5000/67985955/common/draft/22136"},"revision":3,"created":null,"updated":null,"id":"22136"},{"metadata":{"dateIssued":"1994","creator":[{"name":"Klosov\u00e1, Mark\u00e9ta"}],"oarepo:draft":true,"oarepo:validity":{"valid":false},"control_number":"22137","_administration":{"primaryCommunity":"67985955","communities":[]},"title":[{"cs":"Konference P\u0159\u00ednos piaristick\u00e9ho \u0159\u00e1du k v\u011bd\u011b a kultu\u0159e v Polsku 18. a 19. stolet\u00ed (Var\u0161ava 20.-21. 11. 1992)"}],"resourceType":[{"level":1,"links":{"self":"https://localhost:8080/api/2.0/taxonomies/resourceType/reports"},"title":{"cs":"Zpr\u00e1vy","en":"Reports"},"is_ancestor":true},{"level":2,"COARtype":["research report","research report"],"links":{"parent":"https://localhost:8080/api/2.0/taxonomies/resourceType/reports","self":"https://localhost:8080/api/2.0/taxonomies/resourceType/reports/research-reports"},"nuslType":["vyzkumne_zpravy","technicke_zpravy","vyzkumne_zpravy","technicke_zpravy"],"title":{"cs":"V\u00fdzkumn\u00e9 zpr\u00e1vy","en":"Research reports"},"is_ancestor":false,"isGL":"True","relatedURI":["http://purl.org/coar/resource_type/c_18ws","http://purl.org/coar/resource_type/c_18ws"]}]},"links":{"self":"https://localhost:5000/67985955/common/draft/22137"},"revision":3,"created":null,"updated":null,"id":"22137"},{"metadata":{"dateIssued":"1994","creator":[{"name":"Provazn\u00edk, Stanislav"}],"oarepo:draft":true,"oarepo:validity":{"valid":false},"subject":[{"level":1,"links":{"self":"https://localhost:8080/api/2.0/taxonomies/subjects/psh"},"title":{"cs":"Polytematick\u00fd strukturovan\u00fd hesl\u00e1\u0159","en":"Polythematic Structured Subject Heading System"},"is_ancestor":true},{"level":2,"links":{"parent":"https://localhost:8080/api/2.0/taxonomies/subjects/psh","self":"https://localhost:8080/api/2.0/taxonomies/subjects/psh/psh11322"},"altLabel":{"cs":"obecn\u00e1 teorie syst\u00e9m\u016f"},"title":{"cs":"teorie syst\u00e9m\u016f","en":"systems theory"},"is_ancestor":true,"relatedURI":["http://psh.techlib.cz/skos/PSH11322","http://psh.techlib.cz/skos/PSH11322","http://psh.techlib.cz/skos/PSH11322","http://psh.techlib.cz/skos/PSH11322"]},{"level":3,"links":{"parent":"https://localhost:8080/api/2.0/taxonomies/subjects/psh/psh11322","self":"https://localhost:8080/api/2.0/taxonomies/subjects/psh/psh11322/psh11336"},"title":{"cs":"struktura syst\u00e9mu","en":"structure of system"},"is_ancestor":true,"relatedURI":["http://psh.techlib.cz/skos/PSH11336","http://psh.techlib.cz/skos/PSH11336","http://psh.techlib.cz/skos/PSH11336","http://psh.techlib.cz/skos/PSH11336"]},{"level":4,"links":{"parent":"https://localhost:8080/api/2.0/taxonomies/subjects/psh/psh11322/psh11336","self":"https://localhost:8080/api/2.0/taxonomies/subjects/psh/psh11322/psh11336/psh11355"},"altLabel":{"cs":"invarianty transformace","en":"transformation of system"},"title":{"cs":"stav syst\u00e9mu","en":"state of system"},"is_ancestor":false,"relatedURI":["http://psh.techlib.cz/skos/PSH11355","http://psh.techlib.cz/skos/PSH11355"]},{"level":4,"links":{"parent":"https://localhost:8080/api/2.0/taxonomies/subjects/psh/psh11322/psh11336","self":"https://localhost:8080/api/2.0/taxonomies/subjects/psh/psh11322/psh11336/psh11360"},"altLabel":{"cs":"invarianty transformace","en":"transformation of system"},"title":{"cs":"transformace syst\u00e9mu","en":"transformations of system"},"is_ancestor":false,"relatedURI":["http://psh.techlib.cz/skos/PSH11360","http://psh.techlib.cz/skos/PSH11360"]},{"level":2,"links":{"parent":"https://localhost:8080/api/2.0/taxonomies/subjects/psh","self":"https://localhost:8080/api/2.0/taxonomies/subjects/psh/psh11322"},"altLabel":{"cs":"obecn\u00e1 teorie syst\u00e9m\u016f"},"title":{"cs":"teorie syst\u00e9m\u016f","en":"systems theory"},"is_ancestor":true,"relatedURI":["http://psh.techlib.cz/skos/PSH11322"]},{"level":3,"links":{"parent":"https://localhost:8080/api/2.0/taxonomies/subjects/psh/psh11322","self":"https://localhost:8080/api/2.0/taxonomies/subjects/psh/psh11322/psh11336"},"title":{"cs":"struktura syst\u00e9mu","en":"structure of system"},"is_ancestor":true,"relatedURI":["http://psh.techlib.cz/skos/PSH11336"]},{"level":4,"links":{"parent":"https://localhost:8080/api/2.0/taxonomies/subjects/psh/psh11322/psh11336","self":"https://localhost:8080/api/2.0/taxonomies/subjects/psh/psh11322/psh11336/psh11355"},"title":{"cs":"stav syst\u00e9mu","en":"state of system"},"is_ancestor":false,"relatedURI":["http://psh.techlib.cz/skos/PSH11355"]}],"control_number":"22149","_administration":{"primaryCommunity":"67985955","communities":[]},"title":[{"cs":"Anal\u00fdza sou\u010dasn\u00e9ho stavu transformace syst\u00e9mu v\u011bdy a v\u00fdzkumu v \u010cR a kl\u00ed\u010dov\u00e9 probl\u00e9my tvorby v\u011bdn\u00ed a technologick\u00e9 politiky v podm\u00ednk\u00e1ch politick\u00e9 a ekonomick\u00e9 transformace \u010desk\u00e9 spole\u010dnosti. Projekt expertn\u00edho v\u00fdzkumu"}],"resourceType":[{"level":1,"links":{"self":"https://localhost:8080/api/2.0/taxonomies/resourceType/reports"},"title":{"cs":"Zpr\u00e1vy","en":"Reports"},"is_ancestor":true},{"level":2,"COARtype":["research report","research report"],"links":{"parent":"https://localhost:8080/api/2.0/taxonomies/resourceType/reports","self":"https://localhost:8080/api/2.0/taxonomies/resourceType/reports/research-reports"},"nuslType":["vyzkumne_zpravy","technicke_zpravy","vyzkumne_zpravy","technicke_zpravy"],"title":{"cs":"V\u00fdzkumn\u00e9 zpr\u00e1vy","en":"Research reports"},"is_ancestor":false,"isGL":"True","relatedURI":["http://purl.org/coar/resource_type/c_18ws","http://purl.org/coar/resource_type/c_18ws"]}]},"links":{"self":"https://localhost:5000/67985955/common/draft/22149"},"revision":4,"created":null,"updated":null,"id":"22149"},{"metadata":{"dateIssued":"1995","creator":[{"name":"Tondl, Ladislav"}],"oarepo:draft":true,"contributor":[{"name":"Provazn\u00edk, Stanislav"}],"oarepo:validity":{"valid":false},"control_number":"22154","_administration":{"primaryCommunity":"67985955","communities":[]},"title":[{"cs":"Zm\u011bny spole\u010densk\u00e9ho postaven\u00ed v\u011bdy a v\u00fdzkumu a jejich vlivu na formov\u00e1n\u00ed prioritn\u00edch sm\u011br\u016f v\u00fdzkumu v \u010cR (s ohledem na humanitn\u00ed a soci\u00e1ln\u00ed obory)"}],"resourceType":[{"level":1,"links":{"self":"https://localhost:8080/api/2.0/taxonomies/resourceType/reports"},"title":{"cs":"Zpr\u00e1vy","en":"Reports"},"is_ancestor":true},{"level":2,"COARtype":["research report","research report"],"links":{"parent":"https://localhost:8080/api/2.0/taxonomies/resourceType/reports","self":"https://localhost:8080/api/2.0/taxonomies/resourceType/reports/research-reports"},"nuslType":["vyzkumne_zpravy","technicke_zpravy","vyzkumne_zpravy","technicke_zpravy"],"title":{"cs":"V\u00fdzkumn\u00e9 zpr\u00e1vy","en":"Research reports"},"is_ancestor":false,"isGL":"True","relatedURI":["http://purl.org/coar/resource_type/c_18ws","http://purl.org/coar/resource_type/c_18ws"]}]},"links":{"self":"https://localhost:5000/67985955/common/draft/22154"},"revision":4,"created":null,"updated":null,"id":"22154"},{"metadata":{"dateIssued":"1994","creator":[{"name":"\u0160ubrt, Ji\u0159\u00ed"}],"oarepo:draft":true,"oarepo:validity":{"valid":false},"control_number":"29011","_administration":{"primaryCommunity":"67985955","communities":[]},"title":[{"en":"Institute for Classical Studies. Annual 93-94"}],"resourceType":[{"level":1,"links":{"self":"https://localhost:8080/api/2.0/taxonomies/resourceType/reports"},"title":{"cs":"Zpr\u00e1vy","en":"Reports"},"is_ancestor":true},{"level":2,"COARtype":["research report","research report"],"links":{"parent":"https://localhost:8080/api/2.0/taxonomies/resourceType/reports","self":"https://localhost:8080/api/2.0/taxonomies/resourceType/reports/research-reports"},"nuslType":["vyzkumne_zpravy","technicke_zpravy","vyzkumne_zpravy","technicke_zpravy"],"title":{"cs":"V\u00fdzkumn\u00e9 zpr\u00e1vy","en":"Research reports"},"is_ancestor":false,"isGL":"True","relatedURI":["http://purl.org/coar/resource_type/c_18ws","http://purl.org/coar/resource_type/c_18ws"]}]},"links":{"self":"https://localhost:5000/67985955/common/draft/29011"},"revision":3,"created":null,"updated":null,"id":"29011"},{"metadata":{"creator":[{"name":"Ou\u0159edn\u00ed\u010dek, Martin,"}],"oarepo:draft":true,"contributor":[{"name":"Kupkov\u00e1, Lucie"},{"name":"Posp\u00ed\u0161ilov\u00e1, Lucie"},{"name":"\u0160imon, Martin"},{"name":"K\u0159ivka, Martin"},{"name":"Svoboda, Peter"},{"name":"Soukup, Mat\u011bj"},{"name":"Marvanov\u00e1, Pavl\u00edna"},{"name":"Kone\u010dn\u00fd, Milan"},{"name":"Kru\u0161inov\u00e1, Lenka"}],"keywords":[{"cs":"historick\u00e1 kartografie"},{"cs":"geografick\u00e9 informa\u010dn\u00ed syst\u00e9my"},{"cs":"okresy"},{"cs":"administrativn\u00ed hranice"}],"oarepo:validity":{"valid":false},"control_number":"262683","_administration":{"primaryCommunity":"00216208","communities":[]},"title":[{"cs":"Metodika vytvo\u0159en\u00ed a vyu\u017eit\u00ed historick\u00fdch prostorov\u00fdch dat v prost\u0159ed\u00ed GIS "}],"resourceType":[{"level":1,"links":{"self":"https://localhost:8080/api/2.0/taxonomies/resourceType/methodologies-and-procedures"},"title":{"cs":"Metodiky a postupy","en":"Methodologies and procedures"},"is_ancestor":true},{"level":2,"COARtype":["workflow","workflow"],"links":{"parent":"https://localhost:8080/api/2.0/taxonomies/resourceType/methodologies-and-procedures","self":"https://localhost:8080/api/2.0/taxonomies/resourceType/methodologies-and-procedures/methodologies-without-certification"},"nuslType":["metodiky","metodiky"],"title":{"cs":"Metodiky bez certifikace","en":"Methodologies without certification"},"is_ancestor":false,"isGL":"True","relatedURI":["http://purl.org/coar/resource_type/c_393c","http://purl.org/coar/resource_type/c_393c"]}]},"links":{"self":"https://localhost:5000/00216208/common/draft/262683"},"revision":6,"created":null,"updated":null,"id":"262683"},{"metadata":{"creator":[{"name":"Ou\u0159edn\u00ed\u010dek, Martin,"}],"oarepo:draft":true,"contributor":[{"name":"Kupkov\u00e1, Lucie"},{"name":"Posp\u00ed\u0161ilov\u00e1, Lucie"},{"name":"\u0160imon, Martin"},{"name":"Ri\u0161ka, Martin"},{"name":"Svoboda, Peter"},{"name":"Soukup, Mat\u011bj"},{"name":"Marvanov\u00e1, Pavl\u00edna"},{"name":"Kone\u010dn\u00fd, Milan"},{"name":"Kru\u0161inov\u00e1, Lenka"}],"keywords":[{"cs":"historick\u00e1 kartografie"},{"cs":"geografick\u00e9 informa\u010dn\u00ed syst\u00e9my"},{"cs":"urbanismus"},{"cs":"administrativn\u00ed hranice"}],"oarepo:validity":{"valid":false},"control_number":"262684","_administration":{"primaryCommunity":"00216208","communities":[]},"title":[{"cs":"Metodika vytvo\u0159en\u00ed a vyu\u017eit\u00ed historick\u00fdch prostorov\u00fdch dat v prost\u0159ed\u00ed GIS "}],"resourceType":[{"level":1,"links":{"self":"https://localhost:8080/api/2.0/taxonomies/resourceType/methodologies-and-procedures"},"title":{"cs":"Metodiky a postupy","en":"Methodologies and procedures"},"is_ancestor":true},{"level":2,"COARtype":["workflow","workflow"],"links":{"parent":"https://localhost:8080/api/2.0/taxonomies/resourceType/methodologies-and-procedures","self":"https://localhost:8080/api/2.0/taxonomies/resourceType/methodologies-and-procedures/methodologies-without-certification"},"nuslType":["metodiky","metodiky"],"title":{"cs":"Metodiky bez certifikace","en":"Methodologies without certification"},"is_ancestor":false,"isGL":"True","relatedURI":["http://purl.org/coar/resource_type/c_393c","http://purl.org/coar/resource_type/c_393c"]}]},"links":{"self":"https://localhost:5000/00216208/common/draft/262684"},"revision":3,"created":null,"updated":null,"id":"262684"},{"metadata":{"creator":[{"name":"Macek, Petr,"}],"oarepo:draft":true,"contributor":[{"name":"Mudra, Ale\u0161"},{"name":"Ottov\u00e1, Michaela"}],"oarepo:validity":{"valid":false},"control_number":"262685","_administration":{"primaryCommunity":"00216208","communities":[]},"title":[{"cs":"Metodika um\u011blecko-historick\u00e9 topografie \u2013 identifikace, dokumentace a prezentace star\u00e9ho um\u011bn\u00ed"}],"resourceType":[{"level":1,"links":{"self":"https://localhost:8080/api/2.0/taxonomies/resourceType/methodologies-and-procedures"},"title":{"cs":"Metodiky a postupy","en":"Methodologies and procedures"},"is_ancestor":true},{"level":2,"COARtype":["workflow","workflow"],"links":{"parent":"https://localhost:8080/api/2.0/taxonomies/resourceType/methodologies-and-procedures","self":"https://localhost:8080/api/2.0/taxonomies/resourceType/methodologies-and-procedures/methodologies-without-certification"},"nuslType":["metodiky","metodiky"],"title":{"cs":"Metodiky bez certifikace","en":"Methodologies without certification"},"is_ancestor":false,"isGL":"True","relatedURI":["http://purl.org/coar/resource_type/c_393c","http://purl.org/coar/resource_type/c_393c"]}]},"links":{"self":"https://localhost:5000/00216208/common/draft/262685"},"revision":4,"created":null,"updated":null,"id":"262685"},{"metadata":{"creator":[{"name":"B\u00e1rta, Jaroslav,"}],"oarepo:draft":true,"contributor":[{"name":"Dost\u00e1l, Du\u0161an"},{"name":"Vilhelm, Jan"},{"name":"Jirk\u016f, Jaroslav"}],"keywords":[{"cs":"aplikovan\u00e1 geofyzika"}],"oarepo:validity":{"valid":false},"control_number":"262686","_administration":{"primaryCommunity":"00216208","communities":[]},"title":[{"cs":"Metodika prac\u00ed se syst\u00e9mem SGI1 "}],"resourceType":[{"level":1,"links":{"self":"https://localhost:8080/api/2.0/taxonomies/resourceType/methodologies-and-procedures"},"title":{"cs":"Metodiky a postupy","en":"Methodologies and procedures"},"is_ancestor":true},{"level":2,"COARtype":["workflow","workflow"],"links":{"parent":"https://localhost:8080/api/2.0/taxonomies/resourceType/methodologies-and-procedures","self":"https://localhost:8080/api/2.0/taxonomies/resourceType/methodologies-and-procedures/methodologies-without-certification"},"nuslType":["metodiky","metodiky"],"title":{"cs":"Metodiky bez certifikace","en":"Methodologies without certification"},"is_ancestor":false,"isGL":"True","relatedURI":["http://purl.org/coar/resource_type/c_393c","http://purl.org/coar/resource_type/c_393c"]}]},"links":{"self":"https://localhost:5000/00216208/common/draft/262686"},"revision":4,"created":null,"updated":null,"id":"262686"},{"metadata":{"creator":[{"name":"Markov\u00e1, Hana,"}],"oarepo:draft":true,"contributor":[{"name":"Medelsk\u00fd, Jozef"},{"name":"Posp\u00ed\u0161il, Milan"}],"oarepo:validity":{"valid":false},"control_number":"263418","_administration":{"primaryCommunity":"00216208","communities":[]},"title":[{"cs":"Vybran\u00e9 ot\u00e1zky finan\u010dn\u011b pr\u00e1vn\u00edch vztah\u016f ve vztahu k cizinc\u016fm a men\u0161in\u00e1m "}],"resourceType":[{"level":1,"links":{"self":"https://localhost:8080/api/2.0/taxonomies/resourceType/methodologies-and-procedures"},"title":{"cs":"Metodiky a postupy","en":"Methodologies and procedures"},"is_ancestor":true},{"level":2,"COARtype":["workflow","workflow"],"links":{"parent":"https://localhost:8080/api/2.0/taxonomies/resourceType/methodologies-and-procedures","self":"https://localhost:8080/api/2.0/taxonomies/resourceType/methodologies-and-procedures/methodologies-without-certification"},"nuslType":["metodiky","metodiky"],"title":{"cs":"Metodiky bez certifikace","en":"Methodologies without certification"},"is_ancestor":false,"isGL":"True","relatedURI":["http://purl.org/coar/resource_type/c_393c","http://purl.org/coar/resource_type/c_393c"]}]},"links":{"self":"https://localhost:5000/00216208/common/draft/263418"},"revision":5,"created":null,"updated":null,"id":"263418"}],"total":35312},"links":{"self":"https://localhost:5000/all/?sort=best_match&size=10&page=1","next":"https://localhost:5000/all/?sort=best_match&size=10&page=2"},"aggregations":{}}
